Submitter Name,Submitter Job Title,Submitter Email Address,Capability Number,Capability Name,Control Family Number,Control Family Name,Question Number,Question Text,Provided/ Selected Answers,Additional Comments Provided
,,,0.5,Level 0,,,,,,
,,,,,,Submitter Details,EX002,Who in your organization is responsible for providing the answers to this cybersecurity questionnaire?,Name:Rutvij Gusani||Job Title:QA||Email:rutvij.gusani@exostar.com||Name:Shivani||Job Title:QA||Email:shivani.chadha@exostar.com||Name:sanjay||Job Title:QA||Email:sanjay.dabhi@exostar.com,
,,,,,1,Device Inventory,EX03,"In relation to Inventory Of Authorized and Unauthorized Devices, which of the following Capability Level 1 to 3 controls has your organization implemented? Please check all that apply.",,
,,,,,,,EX05,"In relation to Inventory Of Authorized and Unauthorized Devices, which of the following Capability Level 4 to 5 controls has your organization implemented? Please check all that apply.",,
,,,,,,,EX06,"Please provide any additional information on your implementation of the Inventory Of Authorized and Unauthorized Devices controls in the text box below. This additional information may not be reviewed by all Subscribing Organizations with access to your questionnaire, and it will not have any impact on scoring or capability level.",,fgfg
,,,,,2,Software Inventory,EX07,"In relation to Inventory Of Authorized and Unauthorized Software, which of the following Capability Level 1 to 3 controls has your organization implemented? Please check all that apply.",,
,,,,,,,EX09,"In relation to Inventory Of Authorized and Unauthorized Software, which of the following Capability Level 4 to 5 controls has your organization implemented? Please check all that apply.",,
,,,,,,,EX010,"Please provide any additional information on your implementation of the Inventory Of Authorized and Unauthorized Software controls in the text box below. This additional information may not be reviewed by all Subscribing Organizations with access to your questionnaire, and it will not have any impact on scoring or capability level. ",,test
,,,,,3,Secure Configurations,EX011,"In relation to Secure Configurations for Hardware and Software on Mobile Devices, Laptops, Workstations, and Servers, which of the following Capability Level 1 to 3 controls has your organization implemented? Please check all that apply.",,
,,,,,,,EX013,"In relation to Secure Configurations for Hardware and Software on Mobile Devices, Laptops, Workstations, and Servers, which of the following Capability Level 4 to 5 controls has your organization implemented? Please check all that apply.",,
,,,,,,,EX014,"Please provide any additional information on your implementation of the Secure Configurations for Hardware and Software on Mobile Devices, Laptops, Workstations, and Servers controls in the text box below. This additional information may not be reviewed by all Subscribing Organizations with access to your questionnaire, and it will not have any impact on scoring or capability level.",,fgfg
,,,,,4,Assess/Remediation,EX015,"In relation to Continuous Vulnerability Assessment and Remediation, which of the following Capability Level 1 to 3 controls has your organization implemented? Please check all that apply.",,
,,,,,,,EX017,"In relation to Continuous Vulnerability Assessment and Remediation, which of the following Capability Level 4 to 5 controls has your organization implemented? Please check all that apply.",,
,,,,,,,EX018,"Please provide any additional information on your implementation of the Continuous Vulnerability Assessment and Remediation controls in the text box below. This additional information may not be reviewed by all Subscribing Organizations with access to your questionnaire, and it will not have any impact on scoring or capability level.",,fgfg
,,,,,5,Malware Defenses,EX019,"In relation to Malware Defenses, which of the following Capability Level 1 to 3 controls has your organization implemented? Please check all that apply.",,
,,,,,,,EX021,"In relation to Malware Defenses, which of the following Capability Level 4 to 5 controls has your organization implemented? Please check all that apply.",,
,,,,,,,EX022,"Please provide any additional information on your implementation of the Malware Defenses controls in the text box below. This additional information may not be reviewed by all Subscribing Organizations with access to your questionnaire, and it will not have any impact on scoring or capability level.",,fgfg
,,,,,6,In-house SW Security,EX016,Does your organization develop any software that your organization uses in house?,Yes,
,,,,,,,EX023,"In relation to Application Software Security - Inhouse Developed Software, which of the following Capability Level 1 to 3 controls has your organization implemented? Please check all that apply.",,
,,,,,,,EX024,"Please provide any additional information on your implementation of the Application Software Security - Inhouse Developed Software controls in the text box below. This additional information may not be reviewed by all Subscribing Organizations with access to your questionnaire, and it will not have any impact on scoring or capability level.",,
,,,,,6a,Purchased SW Security,EX025,"In relation to Application Software Security - Purchased Software, which of the following Capability Level 1 to 3 controls has your organization implemented? Please check all that apply.",,
,,,,,,,EX027,"In relation to Application Software Security - Purchased Software, which of the following Capability Level 4 to 5 controls has your organization implemented? Please check all that apply.",,
,,,,,,,EX028,"Please provide any additional information on your implementation of the Application Software Security - Purchased Software controls in the text box below. This additional information may not be reviewed by all Subscribing Organizations with access to your questionnaire, and it will not have any impact on scoring or capability level.",,Purchases SW Security
,,,,,7,Wireless Access,EX240,Does your organization support Wireless Access Controls?,Yes,
,,,,,,,EX029,"In relation to Wireless Access Control, which of the following Capability Level 1 to 3 controls has your organization implemented? Please check all that apply.",,
,,,,,,,EX031,"In relation to Wireless Access Control, which of the following Capability Level 4 to 5 controls has your organization implemented? Please check all that apply.",,
,,,,,,,EX032,"Please provide any additional information on your implementation of the Wireless Access Control controls in the text box below. This additional information may not be reviewed by all Subscribing Organizations with access to your questionnaire, and it will not have any impact on scoring or capability level.",,
,,,,,8,Data Recovery,EX033,"In relation to Data Recovery Capability, which of the following Capability Level 2 to 3 controls has your organization implemented? Please check all that apply.",,
,,,,,,,EX035,"In relation to Data Recovery Capability, which of the following Capability Level 4 to 5 controls has your organization implemented? Please check all that apply.","Test data on backup media on a regular basis by performing a data restoration process to ensure that the backup is properly working. (CSC 8-2)||Ensure that key systems have at least one backup destination that is not continuously addressable through operating system calls. This will mitigate the risk of attacks like CryptoLocker which seek to encrypt or damage data on all addressable data shares, including backup destinations. (CSC 8-4)",
,,,,,,,EX036,"Please provide any additional information on your implementation of the Data Recovery Capability controls in the text box below. This additional information may not be reviewed by all Subscribing Organizations with access to your questionnaire, and it will not have any impact on scoring or capability level.",,8989
,,,,,9,Skills/Tranining,EX037,"In relation to Security Skills Assessment &amp; Appropriate Training, which of the following Capability Level 2 to 3 controls has your organization implemented? Please check all that apply.","Perform gap analysis to see which skills employees need and which behaviors employees are not adhering to, using this information to build a baseline training and awareness roadmap for all employees. (CSC 9-1)||Deliver training to fill the skills gap. If possible, use more senior staff to deliver the training. A second option is to have outside teachers provide training onsite so the examples used will be directly relevant. If you have small numbers of people to train, use training conferences or online training to fill the gaps. (CSC 9-2)||Implement an online security awareness program that (1) focuses only on the methods commonly used in intrusions that can be blocked through individual action, (2) is delivered in short online modules convenient for employees (3) is updated frequently (at least annually) to represent the latest attack techniques, (4) is mandated for completion by all employees at least annually, and (5) is reliably monitored for employee completion. (CSC 9-3)||Validate and improve awareness levels through periodic tests to see whether employees will click on a link from suspicious e-mail or provide sensitive information on the telephone without following appropriate procedures for authenticating a caller; targeted training should be provided to those who fall victim to the exercise. (CSC 9-4)",
,,,,,,,EX039,"In relation to Security Skills Assessment &amp; Appropriate Training, which of the following Capability Level 4 controls has your organization implemented? Please check all that apply.","Use security skills assessments for each of the mission-critical roles to identify skills gaps. Use hands-on, real-world examples to measure mastery. If you do not have such assessments, use one of the available online competitions that simulate real-world scenarios for each of the identified jobs in order to measure skills mastery. (CSC 9-5)",
,,,,,,,EX040,"Please provide any additional information on your implementation of the Security Skills Assessment &amp; Appropriate Training controls in the text box below. This additional information may not be reviewed by all Subscribing Organizations with access to your questionnaire, and it will not have any impact on scoring or capability level.",,2121212
,,,,,10,Network Devices,EX041,"In relation to Secure Configurations for Network Devices such as Firewalls, Routers &amp; Switches, which of the following Capability Level 1 to 3 controls has your organization implemented? Please check all that apply.","Compare firewall, router, and switch configuration against standard secure configurations defined for each type of network device in use in the organization. The security configuration of such devices should be documented, reviewed, and approved by an organization change control board. Any deviations from the standard configuration or updates to the standard configuration should be documented and approved in a change control system. (CSC 10-1)||All new configuration rules beyond a baseline-hardened configuration that allow traffic to flow through network security devices, such as firewalls and network-based IPS, should be documented and recorded in a configuration management system, with a specific business reason for each change, a specific individual's name responsible for that business need, and an expected duration of the need. (CSC 10-2)||Install the latest stable version of any security-related updates. (CSC 10-5)||Use automated tools to verify standard device configurations and detect changes. All alterations to such files should be automatically reported to security personnel. (CSC 10-3)||Manage network devices using two-factor authentication and encrypted sessions. (CSC 10-4)",
,,,,,,,EX043,"In relation to Secure Configurations for Network Devices such as Firewalls, Routers &amp; Switches, which of the following Capability Level 5 controls has your organization implemented? Please check all that apply.","Manage the network infrastructure across network connections that are separated from the business use of that network, relying on separate VLANs or, preferably, on entirely different physical connectivity for management sessions for network devices. (CSC 10-6)",
,,,,,,,EX044,"Please provide any additional information on your implementation of the Secure Configurations for Network Devices such as Firewalls, Routers &amp; Switches controls in the text box below. This additional information may not be reviewed by all Subscribing Organizations with access to your questionnaire, and it will not have any impact on scoring or capability level.",,cvc
,,,,,11,Network Controls,EX045,"In relation to Limitation and Control of Network Ports, Protocols &amp; Services, which of the following Capability Level 1 to 3 controls has your organization implemented? Please check all that apply.","Apply host-based firewalls or port filtering tools on end systems, with a default-deny rule that drops all traffic except those services and ports that are explicitly allowed. (CSC 11-2)||Keep all services up to date and uninstall and remove any unnecessary components from the system. (CSC 11-4)||Operate critical services on separate physical or logical host machines, such as DNS, file, mail, web, and database servers. (CSC 11-6)||Verify any server that is visible from the Internet or an untrusted network, and if it is not required for business purposes, move it to an internal VLAN and give it a private address. (CSC 11-5)||Ensure that only ports, protocols, and services with validated business needs are running on each system. (CSC 11-1)||Perform automated port scans on a regular basis against all key servers and compared to a known effective baseline. If a change that is not listed on the organization's approved baseline is discovered, an alert should be generated and reviewed. (CSC 11-3)",
,,,,,,,EX047,"In relation to Limitation and Control of Network Ports, Protocols &amp; Services, which of the following Capability Level 4 controls has your organization implemented? Please check all that apply.",Place application firewalls in front of any critical servers to verify and validate the traffic going to the server. Any unauthorized services or traffic should be blocked and an alert generated. (CSC 11-7),
,,,,,,,EX048,"Please provide any additional information on your implementation of the Limitation and Control of Network Ports, Protocols &amp; Services controls in the text box below. This additional information may not be reviewed by all Subscribing Organizations with access to your questionnaire, and it will not have any impact on scoring or capability level.",,Testing from softweb Testing from softweb  Testing from softweb  Testing from softweb  Testing from softweb  Testing from softweb  Testing from softweb  Testing from softweb  Testing from softweb  Testing from softweb  Testing from softweb  Testing from softweb  Testing from softweb  Testing fr
,,,,,12,Administrative Privileges,EX049,"In relation to Controlled Use of Administrative Privileges, which of the following Capability Level 1 to 3 controls has your organization implemented? Please check all that apply.","Configure all administrative passwords to be complex and contain letters, numbers, and special characters intermixed, and with no dictionary words present in the password. Pass phrases containing multiple dictionary words, along with special characters, are acceptable if they are of a reasonable length. (CSC 12-3)||Utilize access control lists to ensure that administrative accounts are used only for system administration activities, and not for reading e-mail, composing documents, or surfing the Internet. Web browsers and e-mail clients especially must be configured to never run as administrator. (CSC 12-7)||Minimize administrative privileges and only use administrative accounts when they are required. Implement focused auditing on the use of administrative privileged functions and monitor for anomalous behavior. (CSC 12-1)||Before deploying any new devices in a networked environment, change all default passwords for applications, operating systems, routers, firewalls, wireless access points, and other systems to have values consistent with administration-level accounts. (CSC 12-4)||Ensure that all service accounts have long and difficult-to-guess passwords that are changed on a periodic basis, as is done for traditional user and administrative passwords. (CSC 12-5)||Configure operating systems so that passwords cannot be re-used within a timeframe of six months. (CSC 12-9)||Through policy and user awareness, require that administrators establish unique, different passwords for their administrative and non-administrative accounts. Each person requiring administrative access should be given his/her own separate account. Users should only use the Windows ""administrator"" or UNIX ""root"" accounts in emergency situations. Domain administration accounts should be used when required for system administration instead of local administrative accounts. (CSC 12-8)||Configure systems to issue a log entry and alert when an account is added to or removed from a domain administrators' group, or when a new local administrator account is added on a system. (CSC 12-10)||Configure systems to issue a log entry and alert when unsuccessful login to an administrative account is attempted. (CSC 12-11)||Passwords should be hashed or encrypted in storage. Passwords that are hashed should be salted and follow guidance provided in NIST SP 800-132 or similar guidance. Files containing these encrypted or hashed passwords required for systems to authenticate users should be readable only with super-user privileges. (CSC 12-6)",
,,,,,,,EX051,"In relation to Controlled Use of Administrative Privileges, which of the following Capability Level 4 to 5 controls has your organization implemented? Please check all that apply.","Use multifactor authentication for all administrative access, including domain administrative access. Multi-factor authentication can include a variety of techniques, to include the use of smart cards with certificates, One Time Password (OTP) tokens, and biometrics. (CSC 12-12)",
,,,,,,,EX052,"Please provide any additional information on your implementation of the Controlled Use of Administrative Privileges controls in the text box below. This additional information may not be reviewed by all Subscribing Organizations with access to your questionnaire, and it will not have any impact on scoring or capability level.",,dfdf
,,,,,13,Boundary Defense,EX053,"In relation to Boundary Defense, which of the following Capability Level 1 to 3 controls has your organization implemented? Please check all that apply.","Deny communications with (or limit data flow to) known malicious IP addresses (black lists), or limit access only to trusted sites (whitelists). Tests can be periodically carried out by sending packets from bogon source IP addresses (non-routable or otherwise unused IP addresses) into the network to verify that they are not transmitted through network perimeters. Lists of bogon addresses are publicly available on the Internet from various sources, and indicate a series of IP addresses that should not be used for legitimate traffic traversing the Internet. (CSC 13-1)||Require all remote login access (including VPN, dial-up, and other forms of access that allow login to internal systems) to use two-factor authentication. (CSC 13-7)||To lower the chance of spoofed e-mail messages, implement the Sender Policy Framework (SPF) by deploying SPF records in DNS and enabling receiver-side verification in mail servers. (CSC 13-3)||Design and implement network perimeters so that all outgoing web, file transfer protocol (FTP), and secure shell traffic to the Internet must pass through at least one proxy on a DMZ network. The proxy should support logging individual TCP sessions; blocking specific URLs, domain names, and IP addresses to implement a black list; and applying whitelists of allowed sites that can be accessed through the proxy while blocking all other sites. Organizations should force outbound traffic to the Internet through an authenticated proxy server on the enterprise perimeter. Proxies can also be used to encrypt all traffic leaving an organization. (CSC 13-6)||To minimize the impact of an attacker pivoting between compromised systems, only allow DMZ systems to communicate with private network systems via application proxies or application-aware firewalls over approved channels. (CSC 13-11)||All enterprise devices remotely logging into the internal network should be managed by the enterprise, with remote control of their configuration, installed software, and patch levels. For third-party devices (e.g., subcontractors/vendors), publish minimum security standards for access to the enterprise network and perform a security scan before allowing access. (CSC 13-8)",
,,,,,,,EX055,"In relation to Boundary Defense, which of the following Capability Level 4 to 5 controls has your organization implemented? Please check all that apply.","Periodically scan for back-channel connections to the Internet that bypass the DMZ, including unauthorized VPN connections and dual-homed hosts connected to the enterprise network and to other networks via wireless, dial-up modems, or other mechanisms. (CSC 13-9)||Deploy network-based IDS sensors on Internet and extranet DMZ systems and networks that look for unusual attack mechanisms and detect compromise of these systems. These network-based IDS sensors may detect attacks through the use of signatures, network behavior analysis, or other mechanisms to analyze traffic. (CSC 13-4)||On DMZ networks, configure monitoring systems (which may be built in to the IDS sensors or deployed as a separate technology) to record at least packet header information, and preferably full packet header and payloads of the traffic destined for or passing through the network border. This traffic should be sent to a properly configured Security Information Event Management (SIEM) or log analytics system so that events can be correlated from all devices on the network. (CSC 13-2)",
,,,,,,,EX056,"Please provide any additional information on your implementation of the Boundary Defense controls in the text box below. This additional information may not be reviewed by all Subscribing Organizations with access to your questionnaire, and it will not have any impact on scoring or capability level.",,ghghg
,,,,,14,Audit Logs,EX057,"In relation to Maintenance, Monitoring &amp; Analysis of Audit Logs, which of the following Capability Level 2 to 3 controls has your organization implemented? Please check all that apply.","Include at least two synchronized time sources (i.e., Network Time Protocol - NTP) from which all servers and network equipment retrieve time information on a regular basis so that timestamps in logs are consistent, and are set to UTC (Coordinate Universal Time). (CSC 14-1)||Ensure that all systems that store logs have adequate storage space for the logs generated on a regular basis, so that log files will not fill up between log rotation intervals. The logs must be archived and digitally signed on a periodic basis. (CSC 14-3)||Develop a log retention policy to make sure that the logs are kept for a sufficient period of time. Organizations are often compromised for several months without detection. The logs must be kept for a longer period of time than it takes an organization to detect an attack so they can accurately determine what occurred. (CSC 14-4)||Have security personnel and/or system administrators run biweekly reports that identify anomalies in logs. They should then actively review the anomalies, documenting their findings. (CSC 14-5)||Ensure that the log collection system does not lose events during peak activity, and that the system detects and alerts if event loss occurs (such as when volume exceeds the capacity of a log collection system). This includes ensuring that the log collection system can accommodate intermittent or restricted-bandwidth connectivity through the use of handshaking / flow control. (CSC 14-10)||Validate audit log settings for each hardware device and the software installed on it, ensuring that logs include a date, timestamp, source addresses, destination addresses, and various other useful elements of each packet and/or transaction. Systems should record logs in a standardized format such as syslog entries or those outlined by the Common Event Expression initiative. If systems cannot generate logs in a standardized format, log normalization tools can be deployed to convert logs into such a format. (CSC 14-2)",
,,,,,,,EX059,"In relation to Maintenance, Monitoring &amp; Analysis of Audit Logs, which of the following Capability Level 4 to 5 controls has your organization implemented? Please check all that apply.","Configure network boundary devices, including firewalls, network-based IPS, and inbound and outbound proxies, to verbosely log all traffic (both allowed and blocked) arriving at the device. (CSC 14-6)||Deploy a SIEM (Security Incident and Event Management) or log analytic tools for log aggregation and consolidation from multiple machines and for log correlation and analysis. Using the SIEM tool, system administrators and security personnel should devise profiles of common events from given systems so that they can tune detection to focus on unusual activity, avoid false positives, more rapidly identify anomalies, and prevent overwhelming analysts with insignificant alerts. (CSC 14-8)",
,,,,,,,EX060,"Please provide any additional information on your implementation of the Maintenance, Monitoring &amp; Analysis of Audit Logs controls in the text box below. This additional information may not be reviewed by all Subscribing Organizations with access to your questionnaire, and it will not have any impact on scoring or capability level.",,dfdf
,,,,,15,Controlled Access,EX061,"In relation to Controlled Access Based on the Need to Know, which of the following Capability Level 5 controls has your organization implemented? Please check all that apply.","Locate any sensitive information on separated VLANS with firewall filtering. All communication of sensitive information over less-trusted networks should be encrypted. (CSC 15-1)||Segment the network based on the trust levels of the information stored on the servers. Whenever information flows over a network with a lower trust level, the information should be encrypted. (CSC 15-3)||Use host-based data loss prevention (DLP) to enforce ACLs even when data is copied off a server. In most organizations, access to the data is controlled by ACLs that are implemented on the server. Once the data have been copied to a desktop system, the ACLs are no longer enforced and the users can send the data to whomever they want. (CSC 15-4)||Enforce detailed audit logging for access to nonpublic data and special authentication for sensitive data. (CSC 15-2)",
,,,,,,,EX062,"Please provide any additional information on your implementation of the Controlled Access Based on the Need to Know controls in the text box below. This additional information may not be reviewed by all Subscribing Organizations with access to your questionnaire, and it will not have any impact on scoring or capability level.",,dfdf
,,,,,16,Account Monitoring and Control,EX063,"In relation to Account Monitoring &amp; Control, which of the following Capability Level 1 to 3 controls has your organization implemented? Please check all that apply.","Review all system accounts and disable any account that cannot be associated with a business process and owner. (CSC 16-1)||Ensure that all accounts have an expiration date associated with the account. (CSC 16-2)||Establish and follow a process for revoking system access by disabling accounts immediately upon termination of an employee or contractor. Disabling instead of deleting accounts allows preservation of audit trails. (CSC 16-4)||Monitor account usage to determine dormant accounts, notifying the user or user's manager. Disable such accounts if not needed, or document and monitor exceptions (e.g., vendor maintenance accounts needed for system recovery or continuity operations). (CSC 16-7)||Require that all non-administrator accounts have strong passwords that contain letters, numbers, and special characters, be changed at least every 90 days, have a minimal age of one day, and not be allowed to use the previous 15 passwords as a new password. These values can be adjusted based on the specific business needs of the organization. (CSC 16-8)||Require that managers match active employees and contractors with each account belonging to their managed staff. Security or system administrators should then disable accounts that are not assigned to active employees or contractors. (CSC 16-10)||Configure screen locks on systems to limit access to unattended workstations. (CSC 16-6)||Regularly monitor the use of all accounts, automatically logging off users after a standard period of inactivity. (CSC 16-5)||Monitor attempts to access deactivated accounts through audit logging. (CSC 16-11)||Use and configure account lockouts such that after a set number of failed login attempts the account is locked for a standard period of time. (CSC 16-9)||For authenticated access to web services within an enterprise, ensure that account usernames and passwords are passed over an encrypted channel and associated password hash files are stored securely if a centralized service is not employed. (CSC 16-15)||Configure all systems to use encrypted channels for the transmission of passwords over a network. (CSC 16-16)||Verify that all password files are encrypted or hashed and that these files cannot be accessed without root or administrator privileges. Audit all access to password files in the system. (CSC 16-17)",
,,,,,,,EX065,"In relation to Account Monitoring &amp; Control, which of the following Capability Level 4 to 5 controls has your organization implemented? Please check all that apply.","Ensure that systems automatically create a report that includes a list of locked-out accounts, disabled accounts, accounts with passwords that exceed the maximum password age, and accounts with passwords that never expire. This list should be sent to the associated system administrator in a secure fashion. (CSC 16-3)||Configure access for all accounts through a centralized point of authentication, for example Active Directory or LDAP. Configure network and security devices for centralized authentication as well. (CSC 16-12)||Profile each user's typical account usage by determining normal time-of-day access and access duration. Reports should be generated that indicate users who have logged in during unusual hours or have exceeded their normal login duration. This includes flagging the use of the user's credentials from a computer other than computers on which the user generally works. (CSC 16-13)||Require multi-factor authentication for accounts that have access to sensitive data or systems. Multi-factor authentication can be achieved using Smart cards with certificates, One Time Password (OTP) tokens, or biometrics. (CSC 16-14)",
,,,,,,,EX066,"Please provide any additional information on your implementation of the Account Monitoring &amp; Control controls in the text box below. This additional information may not be reviewed by all Subscribing Organizations with access to your questionnaire, and it will not have any impact on scoring or capability level.",,dfdf
,,,,,17,Data Protection,EX067,"In relation to Data Protection, which of the following Capability Level 2 to 3 controls has your organization implemented? Please check all that apply.",Deploy approved hard drive encryption software to mobile devices and systems that hold sensitive data. (CSC 17-1)||Verify that cryptographic devices and software are configured to use publicly-vetted algorithms. (CSC 17-2)||Perform an assessment of data to identify sensitive information that requires the application of encryption and integrity controls. (CSC 17-3)||Review cloud provider security practices for data protection. (CSC 17-4)||Block access to known file transfer and e-mail exfiltration websites. (CSC 17-13),
,,,,,,,EX069,"In relation to Data Protection, which of the following Capability Level 4 to 5 controls has your organization implemented? Please check all that apply.","Move data between networks using secure, authenticated, and encrypted mechanisms. (CSC 17-7)",
,,,,,,,EX070,"Please provide any additional information on your implementation of the Data Protection controls in the text box below. This additional information may not be reviewed by all Subscribing Organizations with access to your questionnaire, and it will not have any impact on scoring or capability level.",,01
,,,,,18,Incident Management,EX071,"In relation to Incident Response &amp; Management, which of the following Capability Level 2 to 3 controls has your organization implemented? Please check all that apply.","Ensure that there are written incident response procedures that include a definition of personnel roles for handling incidents. The procedures should define the phases of incident handling. (CSC 18-1)||Assign job titles and duties for handling computer and network incidents to specific individuals. (CSC 18-2)||Define management personnel who will support the incident handling process by acting in key decision-making roles. (CSC 18-3)||Publish information for all personnel, including employees and contractors, regarding reporting computer anomalies and incidents to the incident handling team. Such information should be included in routine employee awareness activities. (CSC 18-6)",
,,,,,,,EX073,"In relation to Incident Response &amp; Management, which of the following Capability Level 4 to 5 controls has your organization implemented? Please check all that apply.","Devise organization-wide standards for the time required for system administrators and other personnel to report anomalous events to the incident handling team, the mechanisms for such reporting, and the kind of information that should be included in the incident notification. This reporting should also include notifying the appropriate Community Emergency Response Team in accordance with all legal or regulatory requirements for involving that organization in computer incidents. (CSC 18-4)||Assemble and maintain information on third-party contact information to be used to report a security incident (i.e., maintain an e-mail address of security@organization.com or have a web page organization.com/security ). (CSC 18-5)",
,,,,,,,EX074,"Please provide any additional information on your implementation of the Incident Response &amp; Management controls in the text box below. This additional information may not be reviewed by all Subscribing Organizations with access to your questionnaire, and it will not have any impact on scoring or capability level.",,dfdf
,,,,,19,Secure Network Engineering,EX075,"In relation to Secure Network Engineering, which of the following Capability Level 2 to 3 controls has your organization implemented? Please check all that apply.","Deploy domain name systems (DNS) in a hierarchical, structured fashion, with all internal network client machines configured to send requests to intranet DNS servers, not to DNS servers located on the Internet. These internal DNS servers should be configured to forward requests they cannot resolve to DNS servers located on a protected DMZ. These DMZ servers, in turn, should be the only DNS servers allowed to send requests to the Internet. (CSC 19-3)||Design the network using a minimum of a three-tier architecture (DMZ, middleware, and private network). Any system accessible from the Internet should be on the DMZ, but DMZ systems should never contain sensitive data. Any system with sensitive data should reside on the private network and never be directly accessible from the Internet. DMZ systems should communicate with private network systems through an application proxy residing on the middleware tier. (CSC 19-1)",
,,,,,,,EX077,"In relation to Secure Network Engineering, which of the following Capability Level 5 controls has your organization implemented? Please check all that apply.","Segment the enterprise network into multiple, separate trust zones to provide more granular control of system access and additional intranet boundary defenses. (CSC 19-4)||To support rapid response and shunning of detected attacks, engineer the network architecture and its corresponding systems for rapid deployment of new access control lists, rules, signatures, blocks, blackholes, and other defensive measures. (CSC 19-2)",
,,,,,,,EX078,"Please provide any additional information on your implementation of the Secure Network Engineering controls in the text box below. This additional information may not be reviewed by all Subscribing Organizations with access to your questionnaire, and it will not have any impact on scoring or capability level.",,ghgh
,,,,,20,Penetration Tests,EX079,"In relation to Penetration Tests &amp; Red Team Exercises, which of the following Capability Level 2 to 3 controls has your organization implemented? Please check all that apply.","Conduct regular external and internal penetration tests to identify vulnerabilities and attack vectors that can be used to exploit enterprise systems successfully. Penetration testing should occur from outside the network perimeter (i.e., the Internet or wireless frequencies around an organization) as well as from within its boundaries (i.e., on the internal network) to simulate both outsider and insider attacks. (CSC 20-1)||Plan clear goals of the penetration test itself with blended attacks in mind, identifying the goal machine or target asset. Many APT-style attacks deploy multiple vectors--often social engineering combined with web or network exploitation. Red Team manual or automated testing that captures pivoted and multi-vector attacks offers a more realistic assessment of security posture and risk to critical assets. (CSC 20-5)",
,,,,,,,EX081,"In relation to Penetration Tests &amp; Red Team Exercises, which of the following Capability Level 4 to 5 controls has your organization implemented? Please check all that apply.","Include tests for the presence of unprotected system information and artifacts that would be useful to attackers, including network diagrams, configuration files, older penetration test reports, e-mails or documents containing passwords or other information critical to system operation. (CSC 20-4)||Any user or system accounts used to perform penetration testing, should be controlled and monitored to make sure they are only being used for legitimate purposes, and are removed or restored to normal function after testing is over. (CSC 20-2)||Use vulnerability scanning and penetration testing tools in concert. The results of vulnerability scanning assessments should be used as a starting point to guide and focus penetration testing efforts. (CSC 20-6)||Perform periodic Red Team exercises to test organizational readiness to identify and stop attacks or to respond quickly and effectively. (CSC 20-3)",
,,,,,,,EX082,"Please provide any additional information on your implementation of the Penetration Tests &amp; Red Team Exercises controls in the text box below. This additional information may not be reviewed by all Subscribing Organizations with access to your questionnaire, and it will not have any impact on scoring or capability level.",,fgfg
,,,,,21,Governance,EX083,"In relation to Organization/Governance, which of the following Capability Level 1 to 3 controls has your organization implemented? Please check all that apply.","Company has a person with responsibilities in Cybersecurity Risk Management (CSC 21-1)||Company does active cyber risk management as part of your overall risk management (CSC 21-2)||Company has a cybersecurity policy patterned after (NIST 800-53, ISO 17799, or another industry standard) (CSC 21-3)||When your company must share sensitive information with their suppliers or 3rd parties, your company requires those suppliers to follow cybersecurity policies, and procedures based on industry standards (e.g. ISO 27000, NIST 800-53)? (CSC 21-4)",
,,,,,,,EX085,"In relation to Organization/Governance, which of the following Capability Level 4 to 5 controls has your organization implemented? Please check all that apply.","When your company must share sensitive information with or provide access to their suppliers or 3rd parties, verify that they meet any data handling requirements (CSC 21-5)||Company performs or engages a 3rd party to perform an objective cybersecurity audit of the company's controls (CSC 21-6)",
,,,,,,,EX086,"Please provide any additional information on your implementation of the Organization/Governance controls in the text box below. This additional information may not be reviewed by all Subscribing Organizations with access to your questionnaire, and it will not have any impact on scoring or capability level.",,gfgf
,,,,,22,Mobile Device,EX087,"In relation to Mobile Device, which of the following Capability Level 2 controls has your organization implemented? Please check all that apply.","Do all mobile devices (e.g. smartphones, tablets), to include Bring Your Own Device (BYOD) have access control to the device? (CSC 22-1)||Do all mobile devices (e.g. smartphones, tablets), to include Bring Your Own Device (BYOD) at a minimum have configuration management to enforce policies provided by a centrally managed infrastructure? (CSC 22-2)||Do all mobile devices (e.g. smartphones, tablets), to include Bring Your Own Device (BYOD) at a minimum have the ability to remotely wipe the device? (CSC 22-3)",
,,,,,,,EX088,"Please provide any additional information on your implementation of the Mobile Device controls in the text box below. This additional information may not be reviewed by all Subscribing Organizations with access to your questionnaire, and it will not have any impact on scoring or capability level.",,ghgh
,,,,,23,Feedback,EX089,Thank you for completing the Cyber Assessment. Please provide any feedback on the cybersecurity questionnaire and suggestions for improvement in the text box below.,,ghgh
sanjay dabhi,TL,sanja.dabhi@exostar.com,,,24,Submission,EX090,Thank you for your response.,,
